{
	"AssetInfoVersion": 2,
	"ShaderCodeToAssets": [
		{
			"ShaderMapHash": "DB0D217DADA01D4BF245FE2C74ACBC9C530AFD9F",
			"Assets": [
				"None"
			]
		},
		{
			"ShaderMapHash": "0AFCC42DCFDAE5B5208B6288582BB124E95D4CE0",
			"Assets": [
				"None"
			]
		},
		{
			"ShaderMapHash": "B33F2AC1DCB2900EEC4D86161A39004166D7CF69",
			"Assets": [
				"None"
			]
		},
		{
			"ShaderMapHash": "01D02128D66CFAC5328B05783B86201277509E1C",
			"Assets": [
				"None"
			]
		},
		{
			"ShaderMapHash": "FAA43C77D3D8BE7FACEA7E8BDA80FFDF0A8E9390",
			"Assets": [
				"None"
			]
		},
		{
			"ShaderMapHash": "C465E37AD48CED5CDB901546C3755F25FD2ED3AC",
			"Assets": [
				"None"
			]
		},
		{
			"ShaderMapHash": "296519EB46FDE75D54BC32FF12D5A8DD963FF917",
			"Assets": [
				"None"
			]
		},
		{
			"ShaderMapHash": "B48F4639EDB66B9B3F1FCFD9443068511C9D5011",
			"Assets": [
				"None"
			]
		},
		{
			"ShaderMapHash": "C9856111BD436988568A9AFB53A5A666E531AC17",
			"Assets": [
				"None"
			]
		},
		{
			"ShaderMapHash": "FD17FC82FFB845235F9F1DA60CD899D0F9309BE9",
			"Assets": [
				"None"
			]
		},
		{
			"ShaderMapHash": "023FFA33992E399C7BC4CAE08F5D0AD6BDD60A80",
			"Assets": [
				"None"
			]
		},
		{
			"ShaderMapHash": "D9F0D035E3F40A984D065060DA9C41A8FC368E79",
			"Assets": [
				"None"
			]
		},
		{
			"ShaderMapHash": "AB5437C90B6B4F15C506DDD4FB13BB3BD779C149",
			"Assets": [
				"None"
			]
		},
		{
			"ShaderMapHash": "67454B62A5136ADE8BE50D4D98E3392DD33E800C",
			"Assets": [
				"None"
			]
		},
		{
			"ShaderMapHash": "7DE5718B2352C538885C397CFCCC665E1B9EB6A5",
			"Assets": [
				"None"
			]
		},
		{
			"ShaderMapHash": "8ADDA8A345BB553B08CB225982025B2FF01A724F",
			"Assets": [
				"None"
			]
		},
		{
			"ShaderMapHash": "247F9C773FD16FAFA85BB7330F2B3A602B9D68C7",
			"Assets": [
				"None"
			]
		},
		{
			"ShaderMapHash": "2BD26FDD7DDFD88DE0054B33BEBDC9E681165F8D",
			"Assets": [
				"None"
			]
		},
		{
			"ShaderMapHash": "74CD6863EE96B3B5872A9AABFD1425B1D7804631",
			"Assets": [
				"None"
			]
		},
		{
			"ShaderMapHash": "DBA8C86159B0BEE22BDBBF7481237B1BB998FDF1",
			"Assets": [
				"None"
			]
		},
		{
			"ShaderMapHash": "4D9BC85D389013CF6AFE4ED63EB707F6A6CC8EDF",
			"Assets": [
				"None"
			]
		},
		{
			"ShaderMapHash": "86C0912F917B4065D195F9604DBDC6C6C3AB8D95",
			"Assets": [
				"None"
			]
		},
		{
			"ShaderMapHash": "1F8BBCB16BF4A9D75540FEBE3195E2730AED9FE2",
			"Assets": [
				"None"
			]
		},
		{
			"ShaderMapHash": "697A7A96FFFB7DD27C5F806196CB38962C4E8458",
			"Assets": [
				"None"
			]
		},
		{
			"ShaderMapHash": "5CCF392E5A960B6831A087C7A1F5EAFF44A41CCD",
			"Assets": [
				"None"
			]
		},
		{
			"ShaderMapHash": "1C88A8FEA3F83C07782473BE1C71F82DE5DC8344",
			"Assets": [
				"None"
			]
		},
		{
			"ShaderMapHash": "142F43C1FEA1870F8EA0270F44AD7BD85F0B01DF",
			"Assets": [
				"None"
			]
		},
		{
			"ShaderMapHash": "3784CD277807B13A068E710ED655B5B608B70F14",
			"Assets": [
				"None"
			]
		},
		{
			"ShaderMapHash": "E3CF203D9182A5C0AA70C8A951A96F054BB321A7",
			"Assets": [
				"None"
			]
		},
		{
			"ShaderMapHash": "713DB9C42C5F2C30911097B713A37A4F90187FC8",
			"Assets": [
				"None"
			]
		},
		{
			"ShaderMapHash": "9EB4128970E7AFCEA0A98EB541077F1BC1AF02F8",
			"Assets": [
				"None"
			]
		},
		{
			"ShaderMapHash": "79BD617B29455616CD76AFDC1B570EEF140C9390",
			"Assets": [
				"None"
			]
		},
		{
			"ShaderMapHash": "720BEE2F9298D358933F8B9AB85A6216480734C9",
			"Assets": [
				"None"
			]
		},
		{
			"ShaderMapHash": "A45E8C020680E3E9E09BC5B6E483DB2292C74584",
			"Assets": [
				"None"
			]
		},
		{
			"ShaderMapHash": "892E9D5670341046A739F7FC1971245DCEDB7EC1",
			"Assets": [
				"None"
			]
		},
		{
			"ShaderMapHash": "9B1599F7F3AF33286F3AC1858D0FAFED5645BF1A",
			"Assets": [
				"None"
			]
		},
		{
			"ShaderMapHash": "45395C41FFC8796EB6F42F699093B4BDD2E725CF",
			"Assets": [
				"None"
			]
		},
		{
			"ShaderMapHash": "2033274ECF3A2BE1A3C4D034358FFDAB07418591",
			"Assets": [
				"None"
			]
		},
		{
			"ShaderMapHash": "AEC3E9D774F829A66C7D7C79107E3E8AD6A2E0EC",
			"Assets": [
				"None"
			]
		},
		{
			"ShaderMapHash": "7F84F2F465AA6CC9358FFF97CD9EF06CDD1EFBF7",
			"Assets": [
				"None"
			]
		},
		{
			"ShaderMapHash": "50EA0ACC96E7B1C6FA30404036F9AFB93577EF43",
			"Assets": [
				"None"
			]
		},
		{
			"ShaderMapHash": "30E52AD1B44B7AED5A3CD630227CC35C51670746",
			"Assets": [
				"None"
			]
		},
		{
			"ShaderMapHash": "C5C74DBA550C603BF5E386CF0581A480CB3472B8",
			"Assets": [
				"None"
			]
		},
		{
			"ShaderMapHash": "3B256AF5F783BCF4ADEA9D89CC96C26FCD08CA2C",
			"Assets": [
				"None"
			]
		},
		{
			"ShaderMapHash": "5F3890B99CC9DF7FBDBB287EBF5825A6728F5E09",
			"Assets": [
				"None"
			]
		},
		{
			"ShaderMapHash": "50827CD6D62CD86E8D616A89851D896AEB3E91ED",
			"Assets": [
				"None"
			]
		},
		{
			"ShaderMapHash": "B6FDCEF77FEB5636E4E2B16AAD0AEFEA0B439C1E",
			"Assets": [
				"None"
			]
		},
		{
			"ShaderMapHash": "25633B76BE5CD2D5598F5F06542E5F9F30C4E9BC",
			"Assets": [
				"None"
			]
		},
		{
			"ShaderMapHash": "EAD7A35D47A37CCB04809062BAF97CCD9AAEF9FF",
			"Assets": [
				"None"
			]
		},
		{
			"ShaderMapHash": "09AA9E50748934918B972B74FFCABAB5050F0F11",
			"Assets": [
				"None"
			]
		},
		{
			"ShaderMapHash": "776B5115C754E555AFF796DCBF490F43963A54F0",
			"Assets": [
				"None"
			]
		},
		{
			"ShaderMapHash": "907AACAB2F154B0A36428FA753F629B8A00CFB5C",
			"Assets": [
				"None"
			]
		},
		{
			"ShaderMapHash": "E6EA8A3911C8779720DAAA567177EBA9D640214F",
			"Assets": [
				"None"
			]
		},
		{
			"ShaderMapHash": "2CFDD4AFD5F39A726ACEED5D99B44E324E719715",
			"Assets": [
				"None"
			]
		},
		{
			"ShaderMapHash": "85C981D6E275E72B6158A0028DCE93096D2D668D",
			"Assets": [
				"None"
			]
		},
		{
			"ShaderMapHash": "D0EE02924C94A9EF7030BE56AA25DB7D9186D1D6",
			"Assets": [
				"None"
			]
		},
		{
			"ShaderMapHash": "6613069204D6EB92856B10FC801BADB447F4CB9D",
			"Assets": [
				"None"
			]
		},
		{
			"ShaderMapHash": "F35D99EA32F7EBFAFAEA052A55926CEAC118331A",
			"Assets": [
				"None"
			]
		},
		{
			"ShaderMapHash": "310FF0E2BF3A0EF2E2A916081063FD3B201D4117",
			"Assets": [
				"None"
			]
		},
		{
			"ShaderMapHash": "BA80A40B55B9B91B0B211410E0269629721403ED",
			"Assets": [
				"None"
			]
		},
		{
			"ShaderMapHash": "5997C3E5935446F6501F78B478AF9E911923FF85",
			"Assets": [
				"None"
			]
		},
		{
			"ShaderMapHash": "FAF56E6F126331842CD69601C25076A015D50F8D",
			"Assets": [
				"None"
			]
		},
		{
			"ShaderMapHash": "82415E844C077986070EBB7CCEB119FFDA207A87",
			"Assets": [
				"None"
			]
		},
		{
			"ShaderMapHash": "6B24F1B5DF1711746BE6D95E21BB56CF05230C6B",
			"Assets": [
				"None"
			]
		},
		{
			"ShaderMapHash": "C0D9B6611BC3371501F2F020B0A5985CF35E9EC4",
			"Assets": [
				"None"
			]
		},
		{
			"ShaderMapHash": "E24CB5D0DE897B0C3CAF808808BD7663186EBEB7",
			"Assets": [
				"None"
			]
		},
		{
			"ShaderMapHash": "2BC14D94BC71200DEC489D04439FDA772037538A",
			"Assets": [
				"None"
			]
		},
		{
			"ShaderMapHash": "336D594108227A25ED4A1E69621050A5A02FEA3F",
			"Assets": [
				"None"
			]
		},
		{
			"ShaderMapHash": "26037888AF0C881CBFB0E415FDC13EE0B6AA4C06",
			"Assets": [
				"None"
			]
		},
		{
			"ShaderMapHash": "3A323562054DEF799BE04134B8DEB6F63CD249C7",
			"Assets": [
				"None"
			]
		},
		{
			"ShaderMapHash": "0B78FFBEE91843D2A5C1D7B3B1D4B0E0686B8BAB",
			"Assets": [
				"None"
			]
		},
		{
			"ShaderMapHash": "F093570A9086E017135409E564EC393632567B1F",
			"Assets": [
				"None"
			]
		},
		{
			"ShaderMapHash": "58DBA4F94E8C9DF6CA8582C5B08A5BD2E226D449",
			"Assets": [
				"None"
			]
		},
		{
			"ShaderMapHash": "F6A0E50578E3049F55D8D73485A6111AD3FB95B5",
			"Assets": [
				"None"
			]
		},
		{
			"ShaderMapHash": "04A8607E1BCFDFE648A7E19324662F5F1B9938A4",
			"Assets": [
				"None"
			]
		},
		{
			"ShaderMapHash": "AEE61614861202BA0900EA73F200C8EFE5E3A4C7",
			"Assets": [
				"None"
			]
		},
		{
			"ShaderMapHash": "08B4849FE5AA62DCE1A76B3DA397C0241BC0693C",
			"Assets": [
				"None"
			]
		},
		{
			"ShaderMapHash": "7C36ECE61E716AB29C33BE62DB5A7E16DE3C2C6D",
			"Assets": [
				"None"
			]
		},
		{
			"ShaderMapHash": "51AC9FD5FBACEACF81CE9BCCF52F9A8829274812",
			"Assets": [
				"None"
			]
		},
		{
			"ShaderMapHash": "FA147DDFA5BD06192F5A3EC2955751A29835BBD7",
			"Assets": [
				"None"
			]
		},
		{
			"ShaderMapHash": "D22A84C5C6BAC1FB0E7C2A2B5742D2D103D69603",
			"Assets": [
				"None"
			]
		},
		{
			"ShaderMapHash": "5F464AD5BA1D644F46B8CC218F837FB6D2925582",
			"Assets": [
				"None"
			]
		},
		{
			"ShaderMapHash": "D8CB28112D2C25E79B58F85279203F5B183AADD1",
			"Assets": [
				"None"
			]
		},
		{
			"ShaderMapHash": "D22A5DD2294C6395D93FE7834D7973DCF310CCF0",
			"Assets": [
				"None"
			]
		},
		{
			"ShaderMapHash": "229896F6D31317473FEC4553BA1FC2691C52E1BD",
			"Assets": [
				"None"
			]
		},
		{
			"ShaderMapHash": "A526604273A01E22CB06352D3E55FF8A0516B87C",
			"Assets": [
				"None"
			]
		},
		{
			"ShaderMapHash": "1A6A1AB5A365D33049AAA091693523D517FE013D",
			"Assets": [
				"None"
			]
		},
		{
			"ShaderMapHash": "92AE40A7F9074D63C26D2A7D9E0255EF66A7EAF5",
			"Assets": [
				"None"
			]
		},
		{
			"ShaderMapHash": "17D745C49FF4CC5287546B970608793A95F58349",
			"Assets": [
				"None"
			]
		},
		{
			"ShaderMapHash": "3C28D618EDA5DE336E6E34B0A6DA91441F7B57E7",
			"Assets": [
				"None"
			]
		},
		{
			"ShaderMapHash": "140B938A027A017515E75C0CCBB686ADBBB05229",
			"Assets": [
				"None"
			]
		},
		{
			"ShaderMapHash": "50DA61B19466987EEF3A08F214B85B20A427F6FE",
			"Assets": [
				"None"
			]
		},
		{
			"ShaderMapHash": "55E18854263E491A790179F783A4DA10B8E57CB9",
			"Assets": [
				"None"
			]
		},
		{
			"ShaderMapHash": "6E03577490DF24C6D37A8985FE17F3B0361FB997",
			"Assets": [
				"None"
			]
		},
		{
			"ShaderMapHash": "A0D2C01B64941B261327B59080BF1D7262BDA7D3",
			"Assets": [
				"None"
			]
		},
		{
			"ShaderMapHash": "691E477F0CE628B13712124C265D20E62E90C907",
			"Assets": [
				"None"
			]
		},
		{
			"ShaderMapHash": "A258CA81279D4B0FD73E6C5C0745DDC2CBF3D41B",
			"Assets": [
				"None"
			]
		},
		{
			"ShaderMapHash": "E4BC63BB4E73F41E3FA2D3FA974B64B66FE8449D",
			"Assets": [
				"None"
			]
		},
		{
			"ShaderMapHash": "7BEE669912FF315B3EFA0D3FDC5F6AD4057A368C",
			"Assets": [
				"None"
			]
		},
		{
			"ShaderMapHash": "AA50C9502F213EFE6055F2B30A614BCE1BDF1977",
			"Assets": [
				"None"
			]
		},
		{
			"ShaderMapHash": "899338E2D24456887E80F7F474673E658078DAA4",
			"Assets": [
				"None"
			]
		},
		{
			"ShaderMapHash": "DD23ABDF5BD7D938EE733147F50E1C7AF33D4126",
			"Assets": [
				"None"
			]
		},
		{
			"ShaderMapHash": "5D871C1B8BD6A86704CDDE1F9C0F783D980D8059",
			"Assets": [
				"None"
			]
		},
		{
			"ShaderMapHash": "E06C19C5A27429B9D5EDC71C6F38DC22FC183BDC",
			"Assets": [
				"None"
			]
		},
		{
			"ShaderMapHash": "928E973E8835A6B1AB5922B2794774989F862779",
			"Assets": [
				"None"
			]
		},
		{
			"ShaderMapHash": "123C94DC0D30334729380D3340568637AC7D2BEB",
			"Assets": [
				"None"
			]
		},
		{
			"ShaderMapHash": "465498C9DA96BADA3E1D295F3E68746A3DCC94E2",
			"Assets": [
				"None"
			]
		},
		{
			"ShaderMapHash": "73C067A0059C104EDC4910F331469CA99DE4212A",
			"Assets": [
				"None"
			]
		},
		{
			"ShaderMapHash": "B38C020FF57EE362F6B1D66CB34A3677C4E94C5B",
			"Assets": [
				"None"
			]
		},
		{
			"ShaderMapHash": "ADC98D3FD09FF292D2A34F39C99B44AF0C37AE50",
			"Assets": [
				"None"
			]
		},
		{
			"ShaderMapHash": "3DF816C9D0A5C46E892E463F400C755F20E9A72E",
			"Assets": [
				"None"
			]
		},
		{
			"ShaderMapHash": "16AB230142B1F3D8323AFE9F9A10E47813C4AE42",
			"Assets": [
				"None"
			]
		},
		{
			"ShaderMapHash": "031A2340239A71CD44223FF3C380952F48056A65",
			"Assets": [
				"None"
			]
		},
		{
			"ShaderMapHash": "52C454F87BF7858E615C0B063B461C28ED06CBE1",
			"Assets": [
				"None"
			]
		},
		{
			"ShaderMapHash": "9D4095FFA9402ECBE8E763C252203EC60C48D800",
			"Assets": [
				"None"
			]
		},
		{
			"ShaderMapHash": "B114AA25611858D75A717C16E9C6C0E0DDFA4C89",
			"Assets": [
				"None"
			]
		},
		{
			"ShaderMapHash": "1B01E7916CA25B868189A9B823A5A79385DD0CF2",
			"Assets": [
				"None"
			]
		},
		{
			"ShaderMapHash": "00394A921C0CB87D79772F6C8F56DF812539524E",
			"Assets": [
				"None"
			]
		},
		{
			"ShaderMapHash": "788BEFC51B89C46E113DAC2331AF20BEDA49EFBF",
			"Assets": [
				"None"
			]
		},
		{
			"ShaderMapHash": "8A356E20C2B837B2A9D28119E2410ADBB30C0F02",
			"Assets": [
				"None"
			]
		},
		{
			"ShaderMapHash": "F3A0C6636AACDA06327DCAEEC963C9BCF9909BE3",
			"Assets": [
				"None"
			]
		},
		{
			"ShaderMapHash": "968165BAB8A28086421B2646D2856854E65D2495",
			"Assets": [
				"None"
			]
		},
		{
			"ShaderMapHash": "0020915284F946BFE9AC5AAB2D803F679CF3008C",
			"Assets": [
				"None"
			]
		},
		{
			"ShaderMapHash": "0931B8300CF77967E4BAEE12DE07C863F0BB14E1",
			"Assets": [
				"None"
			]
		},
		{
			"ShaderMapHash": "20571D662ECE01C063FF0FA00C23B3301F2F76E2",
			"Assets": [
				"None"
			]
		},
		{
			"ShaderMapHash": "627696FB747F9F8C3D044B36EC784DF97C4ABF81",
			"Assets": [
				"None"
			]
		},
		{
			"ShaderMapHash": "DBEECDDB776FF18650E7F07C456A7D342D1D5A42",
			"Assets": [
				"None"
			]
		},
		{
			"ShaderMapHash": "6491BC5E66C835114FA85B79D53B3CADE7021509",
			"Assets": [
				"None"
			]
		},
		{
			"ShaderMapHash": "C3102624DAC25BFE6BADFC6F05F40C28022C1DDB",
			"Assets": [
				"None"
			]
		},
		{
			"ShaderMapHash": "A054B37482D078CD8B7075FEA47776C1A77414EC",
			"Assets": [
				"None"
			]
		},
		{
			"ShaderMapHash": "0045CAFC72CE1B0355D3682219DA9C3567BA6316",
			"Assets": [
				"None"
			]
		},
		{
			"ShaderMapHash": "B53A18268049BB95573A1BBCFEEE8ACAB0D6C085",
			"Assets": [
				"None"
			]
		},
		{
			"ShaderMapHash": "86125E76087641DDD11DEDEA1CF0A6C09C9D6771",
			"Assets": [
				"None"
			]
		},
		{
			"ShaderMapHash": "3331A548D904FB2DD8B65F8912EFA9400A136AB9",
			"Assets": [
				"None"
			]
		},
		{
			"ShaderMapHash": "C9E42A6C6CE1C029F4F6BACDF3ACD233DD5EA9D8",
			"Assets": [
				"None"
			]
		},
		{
			"ShaderMapHash": "2FB8DA9243D21C452E17A942439820FC30F418F9",
			"Assets": [
				"None"
			]
		},
		{
			"ShaderMapHash": "E61B9783037167B946ACAD6A933950349B27ABA5",
			"Assets": [
				"None"
			]
		},
		{
			"ShaderMapHash": "708F0035197D48FF0D79A386268942BD17DBCA51",
			"Assets": [
				"None"
			]
		},
		{
			"ShaderMapHash": "E38FA14578892E85D911BCD0C7E25E375FB936D7",
			"Assets": [
				"None"
			]
		},
		{
			"ShaderMapHash": "21FCE791999F16A727872A7CCC1B95D57DA004A3",
			"Assets": [
				"None"
			]
		},
		{
			"ShaderMapHash": "52787975CB31D9CABFF457970973F52493E68BCF",
			"Assets": [
				"None"
			]
		},
		{
			"ShaderMapHash": "3D32671EB4D819007D37D0186D55455D82124376",
			"Assets": [
				"None"
			]
		},
		{
			"ShaderMapHash": "778D060A32F457344A9247428F2B967FA65F22C3",
			"Assets": [
				"None"
			]
		},
		{
			"ShaderMapHash": "E38F9B1A2356E4B479C4AF536F79C7F10172435C",
			"Assets": [
				"None"
			]
		},
		{
			"ShaderMapHash": "4C9BB47D636747B30B7A7D21F0D37A8ABEA6EAB9",
			"Assets": [
				"None"
			]
		},
		{
			"ShaderMapHash": "A53E42FD8A88D0754DCBC397CD694509F72F0F47",
			"Assets": [
				"None"
			]
		},
		{
			"ShaderMapHash": "4BE25A5A5CFC95C6D56D182CE56B4517C6FF8E9E",
			"Assets": [
				"None"
			]
		},
		{
			"ShaderMapHash": "59D5FBABE3B13E4DF9178E96A4C6D2C0F63E7086",
			"Assets": [
				"None"
			]
		},
		{
			"ShaderMapHash": "7DBAB4A660E6D7B5E37700EAC160039F97B6889E",
			"Assets": [
				"None"
			]
		},
		{
			"ShaderMapHash": "5A767FB74B0DF80A937EB65DE89834B9A453B4D7",
			"Assets": [
				"None"
			]
		},
		{
			"ShaderMapHash": "062A1A3E6ADB5CEFC683070F963F42933C285334",
			"Assets": [
				"None"
			]
		},
		{
			"ShaderMapHash": "E3857B455397D779AFB1A472A39B7742F101E289",
			"Assets": [
				"None"
			]
		},
		{
			"ShaderMapHash": "91835ECABA62459AB48F4AFD66C2DF453A13F0DA",
			"Assets": [
				"None"
			]
		},
		{
			"ShaderMapHash": "4193C842D7E5206F98193928CA183AF5DD83CC7E",
			"Assets": [
				"None"
			]
		},
		{
			"ShaderMapHash": "68F4DCBC2657DB1C73984756D63DF18CC1586439",
			"Assets": [
				"None"
			]
		},
		{
			"ShaderMapHash": "5D22EB1F6AD1805FC2944BCF84AA94E6675D9AA0",
			"Assets": [
				"None"
			]
		},
		{
			"ShaderMapHash": "3FE6CE753C0E0E7E36A914D8C396845283CAA9A7",
			"Assets": [
				"None"
			]
		},
		{
			"ShaderMapHash": "0B82A978F30B0F2208A78105B7D62FF0C28DE97B",
			"Assets": [
				"None"
			]
		},
		{
			"ShaderMapHash": "384B97B1BA05E704DE6CB6789F33DC0E71A2DEA6",
			"Assets": [
				"None"
			]
		},
		{
			"ShaderMapHash": "41A2ABD9C7519EF0AA70A3C087FE954158106213",
			"Assets": [
				"None"
			]
		},
		{
			"ShaderMapHash": "2F7BEDCC6207DD1A640C76A9704209B30A787564",
			"Assets": [
				"None"
			]
		},
		{
			"ShaderMapHash": "B416A463567BABBFF466E994E1AB8621D976D943",
			"Assets": [
				"None"
			]
		},
		{
			"ShaderMapHash": "2EED95E8F8550CF0DD93703868C1256E58A4465B",
			"Assets": [
				"None"
			]
		},
		{
			"ShaderMapHash": "191266ACF2B9A25312F178883F80A881F1406256",
			"Assets": [
				"None"
			]
		},
		{
			"ShaderMapHash": "21A7073E8471198B4D70062A4B1494CA5EB106F8",
			"Assets": [
				"None"
			]
		},
		{
			"ShaderMapHash": "6E2F079CD5C2AB3B1F3DD9AAA10C49F516434AA7",
			"Assets": [
				"None"
			]
		},
		{
			"ShaderMapHash": "40FD21A8575183DE2A5F3F022257F66D1AC0EB30",
			"Assets": [
				"None"
			]
		},
		{
			"ShaderMapHash": "5887569B19725020FA0D750146DF70B6E22E0CB2",
			"Assets": [
				"None"
			]
		},
		{
			"ShaderMapHash": "BFE92F82AF64673853DBE785312CD412CFDD3BAF",
			"Assets": [
				"None"
			]
		},
		{
			"ShaderMapHash": "96434FCD8E431ECE38AFF2E8CB2A8FDF1B3E4628",
			"Assets": [
				"None"
			]
		},
		{
			"ShaderMapHash": "B1B92CD0A0CB0298BFA55E7A78AD126545547FD5",
			"Assets": [
				"None"
			]
		},
		{
			"ShaderMapHash": "2FB67B9E7958270C479AE48F3EE80BCA0E6CF7F3",
			"Assets": [
				"None"
			]
		},
		{
			"ShaderMapHash": "B460AE5A3E546F263BD951D5069946E1121B72E1",
			"Assets": [
				"None"
			]
		},
		{
			"ShaderMapHash": "CD7488F413FA81618CC98770F24C6A6AFDF8FB80",
			"Assets": [
				"None"
			]
		},
		{
			"ShaderMapHash": "620F23F5D7F297962250AE54DB187DE34E95C87D",
			"Assets": [
				"None"
			]
		},
		{
			"ShaderMapHash": "0C19976B4E3F0A251B25E83360718D59D9B49FC2",
			"Assets": [
				"None"
			]
		},
		{
			"ShaderMapHash": "19674080EE81146EE0E27CAEC6983BB265EB1F13",
			"Assets": [
				"None"
			]
		},
		{
			"ShaderMapHash": "E31C94839C699AF7A62FB71E71644C030F17D7F3",
			"Assets": [
				"None"
			]
		},
		{
			"ShaderMapHash": "B0B2B874C9C724A7D37436DD1BCEFD8D79106610",
			"Assets": [
				"None"
			]
		},
		{
			"ShaderMapHash": "A6EB2959B22FBEDFD42875A423B726FEC21CD766",
			"Assets": [
				"None"
			]
		},
		{
			"ShaderMapHash": "4E75BC57E44B806D37F03C2294D343C78FC1FB4F",
			"Assets": [
				"None"
			]
		},
		{
			"ShaderMapHash": "C5ABC6B7DBBDEA6AA3B1DE6981B85B0ABF23D270",
			"Assets": [
				"None"
			]
		},
		{
			"ShaderMapHash": "63B586E6DFEE26DA0A1D7E937C1639886783755F",
			"Assets": [
				"None"
			]
		},
		{
			"ShaderMapHash": "D498DE66AB08425DF1F9C09F0A56AD5F1D30668B",
			"Assets": [
				"None"
			]
		},
		{
			"ShaderMapHash": "F90432EC29698307124B22E1D4A230251F45DB84",
			"Assets": [
				"None"
			]
		}
	]
}